EESchema Schematic File Version 4
EELAYER 30 0
EELAYER END
$Descr A4 11693 8268
encoding utf-8
Sheet 1 1
Title ""
Date ""
Rev ""
Comp ""
Comment1 ""
Comment2 ""
Comment3 ""
Comment4 ""
$EndDescr
$Comp
L Amplifier_Operational:TL072 U1
U 1 1 5DC86F93
P 3500 2600
F 0 "U1" H 3500 2967 50  0000 C CNN
F 1 "TL072" H 3500 2876 50  0000 C CNN
F 2 "Package_SO:SOIC-8_3.9x4.9mm_P1.27mm" H 3500 2600 50  0001 C CNN
F 3 "http://www.ti.com/lit/ds/symlink/tl071.pdf" H 3500 2600 50  0001 C CNN
F 4 "C6961" H 3500 2600 50  0001 C CNN "LCSC-Nummer"
	1    3500 2600
	1    0    0    -1  
$EndComp
$Comp
L Amplifier_Operational:TL072 U1
U 3 1 5DC8A4CF
P 10050 3750
F 0 "U1" H 10008 3796 50  0000 L CNN
F 1 "TL072" H 10008 3705 50  0000 L CNN
F 2 "Package_SO:SOIC-8_3.9x4.9mm_P1.27mm" H 10050 3750 50  0001 C CNN
F 3 "http://www.ti.com/lit/ds/symlink/tl071.pdf" H 10050 3750 50  0001 C CNN
F 4 "C6961" H 10050 3750 50  0001 C CNN "LCSC-Nummer"
	3    10050 3750
	0    1    1    0   
$EndComp
$Comp
L Device:R R1
U 1 1 5DC91AAC
P 2600 2000
F 0 "R1" H 2670 2046 50  0000 L CNN
F 1 "100K" H 2670 1955 50  0000 L CNN
F 2 "Resistor_SMD:R_0603_1608Metric" V 2530 2000 50  0001 C CNN
F 3 "~" H 2600 2000 50  0001 C CNN
F 4 "C25803" H 2600 2000 50  0001 C CNN "LCSC-Nummer"
	1    2600 2000
	-1   0    0    1   
$EndComp
$Comp
L Device:R R5
U 1 1 5DCA4C92
P 2050 5300
F 0 "R5" H 2120 5346 50  0000 L CNN
F 1 "100K" H 2120 5255 50  0000 L CNN
F 2 "Resistor_SMD:R_0603_1608Metric" V 1980 5300 50  0001 C CNN
F 3 "~" H 2050 5300 50  0001 C CNN
F 4 "C25803" H 2050 5300 50  0001 C CNN "LCSC-Nummer"
	1    2050 5300
	-1   0    0    1   
$EndComp
$Comp
L Device:R R6
U 1 1 5DCA4C98
P 5100 2600
F 0 "R6" H 5170 2646 50  0000 L CNN
F 1 "100R" H 5170 2555 50  0000 L CNN
F 2 "Resistor_SMD:R_0603_1608Metric" V 5030 2600 50  0001 C CNN
F 3 "~" H 5100 2600 50  0001 C CNN
F 4 "C22775" H 5100 2600 50  0001 C CNN "LCSC-Nummer"
	1    5100 2600
	0    -1   -1   0   
$EndComp
$Comp
L Device:R R7
U 1 1 5DCAAC50
P 5150 4850
F 0 "R7" H 5220 4896 50  0000 L CNN
F 1 "100R" H 5220 4805 50  0000 L CNN
F 2 "Resistor_SMD:R_0603_1608Metric" V 5080 4850 50  0001 C CNN
F 3 "~" H 5150 4850 50  0001 C CNN
F 4 "C22775" H 5150 4850 50  0001 C CNN "LCSC-Nummer"
	1    5150 4850
	0    -1   -1   0   
$EndComp
$Comp
L Device:R R8
U 1 1 5DCAAC56
P 7150 1900
F 0 "R8" H 7220 1946 50  0000 L CNN
F 1 "6.8K" H 7220 1855 50  0000 L CNN
F 2 "Resistor_SMD:R_0603_1608Metric" V 7080 1900 50  0001 C CNN
F 3 "~" H 7150 1900 50  0001 C CNN
F 4 "C23212" H 7150 1900 50  0001 C CNN "LCSC-Nummer"
	1    7150 1900
	0    1    1    0   
$EndComp
$Comp
L Device:R R9
U 1 1 5DCAAC5C
P 7150 2500
F 0 "R9" H 7220 2546 50  0000 L CNN
F 1 "6.8K" H 7220 2455 50  0000 L CNN
F 2 "Resistor_SMD:R_0603_1608Metric" V 7080 2500 50  0001 C CNN
F 3 "~" H 7150 2500 50  0001 C CNN
F 4 "C23212" H 7150 2500 50  0001 C CNN "LCSC-Nummer"
	1    7150 2500
	0    -1   -1   0   
$EndComp
$Comp
L Device:C C1
U 1 1 5DCAEC21
P 2350 2500
F 0 "C1" H 2465 2546 50  0000 L CNN
F 1 "1uF" H 2465 2455 50  0000 L CNN
F 2 "Capacitor_SMD:C_0603_1608Metric" H 2388 2350 50  0001 C CNN
F 3 "~" H 2350 2500 50  0001 C CNN
F 4 "C15849" H 2350 2500 50  0001 C CNN "LCSC-Nummer"
	1    2350 2500
	0    -1   -1   0   
$EndComp
$Comp
L Device:D D1
U 1 1 5DCB283B
P 4200 3050
F 0 "D1" H 4200 3266 50  0000 C CNN
F 1 "1N4148" H 4200 3175 50  0000 C CNN
F 2 "Diode_SMD:D_SOD-123F" H 4200 3050 50  0001 C CNN
F 3 "~" H 4200 3050 50  0001 C CNN
F 4 "C64898" H 4200 3050 50  0001 C CNN "LCSC-Nummer"
	1    4200 3050
	0    -1   -1   0   
$EndComp
$Comp
L Device:CP C3
U 1 1 5DCBB4D8
P 4700 4850
F 0 "C3" H 4818 4896 50  0000 L CNN
F 1 "22uF" H 4818 4805 50  0000 L CNN
F 2 "Capacitor_SMD:C_0805_2012Metric" H 4738 4700 50  0001 C CNN
F 3 "~" H 4700 4850 50  0001 C CNN
F 4 "C45783" H 4700 4850 50  0001 C CNN "LCSC-Nummer"
	1    4700 4850
	0    1    1    0   
$EndComp
Wire Wire Line
	2500 2500 2600 2500
Wire Wire Line
	2600 2500 2600 2950
Wire Wire Line
	3150 2700 3150 2850
Wire Wire Line
	3150 2850 3900 2850
Wire Wire Line
	3900 2850 3900 2600
Wire Wire Line
	3900 2600 3800 2600
Wire Wire Line
	3150 2700 3200 2700
$Comp
L Connector:XLR3 J2
U 1 1 5DD73A20
P 6300 1900
F 0 "J2" H 6300 2265 50  0000 C CNN
F 1 "XLR3" H 6300 2174 50  0000 C CNN
F 2 "DI-Box:PJ-324" H 6300 1900 50  0001 C CNN
F 3 " ~" H 6300 1900 50  0001 C CNN
F 4 "" H 6300 1900 50  0001 C CNN "LCSC-Nummer"
	1    6300 1900
	1    0    0    -1  
$EndComp
Wire Wire Line
	6750 1900 6600 1900
$Comp
L Device:LED D4
U 1 1 5DD8D18F
P 9900 2700
F 0 "D4" H 9893 2916 50  0000 C CNN
F 1 "LED" H 9893 2825 50  0000 C CNN
F 2 "LED_SMD:LED_0805_2012Metric" H 9900 2700 50  0001 C CNN
F 3 "~" H 9900 2700 50  0001 C CNN
F 4 "C84256" H 9900 2700 50  0001 C CNN "LCSC-Nummer"
	1    9900 2700
	1    0    0    -1  
$EndComp
Wire Wire Line
	10200 2700 10050 2700
$Comp
L Connector:AudioJack3_Switch J1
U 1 1 5DD2686C
P 1100 2300
F 0 "J1" H 1082 2725 50  0000 C CNN
F 1 "AudioJack3_Switch" H 1082 2634 50  0000 C CNN
F 2 "DI-Box:PJ611" H 1100 2300 50  0001 C CNN
F 3 "~" H 1100 2300 50  0001 C CNN
F 4 "" H 1100 2300 50  0001 C CNN "LCSC-Nummer"
	1    1100 2300
	1    0    0    -1  
$EndComp
Wire Wire Line
	9550 1500 9600 1500
$Comp
L Device:R R12
U 1 1 5DCAAC6E
P 5550 1550
F 0 "R12" H 5620 1596 50  0000 L CNN
F 1 "10R" H 5620 1505 50  0000 L CNN
F 2 "Resistor_SMD:R_0603_1608Metric" V 5480 1550 50  0001 C CNN
F 3 "~" H 5550 1550 50  0001 C CNN
F 4 "C22859" H 5550 1550 50  0001 C CNN "LCSC-Nummer"
	1    5550 1550
	0    1    1    0   
$EndComp
$Comp
L Device:C C8
U 1 1 5DCB09C0
P 5550 1900
F 0 "C8" H 5665 1946 50  0000 L CNN
F 1 "100nF" H 5665 1855 50  0000 L CNN
F 2 "Capacitor_SMD:C_0603_1608Metric" H 5588 1750 50  0001 C CNN
F 3 "~" H 5550 1900 50  0001 C CNN
F 4 "C14663" H 5550 1900 50  0001 C CNN "LCSC-Nummer"
	1    5550 1900
	0    1    1    0   
$EndComp
$Comp
L Device:R R13
U 1 1 5DCABA02
P 10350 2700
F 0 "R13" H 10420 2746 50  0000 L CNN
F 1 "LED" H 10420 2655 50  0000 L CNN
F 2 "Resistor_SMD:R_0603_1608Metric" V 10280 2700 50  0001 C CNN
F 3 "~" H 10350 2700 50  0001 C CNN
F 4 "C23162" H 10350 2700 50  0001 C CNN "LCSC-Nummer"
	1    10350 2700
	0    -1   -1   0   
$EndComp
$Comp
L Device:D D2
U 1 1 5DCB345E
P 4200 5150
F 0 "D2" H 4200 5366 50  0000 C CNN
F 1 "1N4148" H 4200 5275 50  0000 C CNN
F 2 "Diode_SMD:D_SOD-123F" H 4200 5150 50  0001 C CNN
F 3 "~" H 4200 5150 50  0001 C CNN
F 4 "C64898" H 4200 5150 50  0001 C CNN "LCSC-Nummer"
	1    4200 5150
	0    -1   -1   0   
$EndComp
Wire Wire Line
	10300 3150 10200 3150
$Comp
L Device:D_Zener D3
U 1 1 5DCB4526
P 10050 3150
F 0 "D3" H 10050 3366 50  0000 C CNN
F 1 "24V Zener" H 10050 3275 50  0000 C CNN
F 2 "Diode_THT:D_DO-35_SOD27_P7.62mm_Horizontal" H 10050 3150 50  0001 C CNN
F 3 "~" H 10050 3150 50  0001 C CNN
F 4 "" H 10050 3150 50  0001 C CNN "LCSC-Nummer"
	1    10050 3150
	-1   0    0    1   
$EndComp
$Comp
L power:+24V #PWR0101
U 1 1 5E21BE22
P 10650 2700
F 0 "#PWR0101" H 10650 2550 50  0001 C CNN
F 1 "+24V" V 10665 2828 50  0000 L CNN
F 2 "" H 10650 2700 50  0001 C CNN
F 3 "" H 10650 2700 50  0001 C CNN
	1    10650 2700
	0    1    1    0   
$EndComp
$Comp
L power:+24V #PWR0102
U 1 1 5E2206FC
P 10350 3650
F 0 "#PWR0102" H 10350 3500 50  0001 C CNN
F 1 "+24V" H 10365 3823 50  0000 C CNN
F 2 "" H 10350 3650 50  0001 C CNN
F 3 "" H 10350 3650 50  0001 C CNN
	1    10350 3650
	0    1    1    0   
$EndComp
$Comp
L power:+24V #PWR0103
U 1 1 5E220B69
P 10300 3150
F 0 "#PWR0103" H 10300 3000 50  0001 C CNN
F 1 "+24V" H 10315 3323 50  0000 C CNN
F 2 "" H 10300 3150 50  0001 C CNN
F 3 "" H 10300 3150 50  0001 C CNN
	1    10300 3150
	0    1    1    0   
$EndComp
Wire Wire Line
	10500 2700 10650 2700
$Comp
L power:+24V #PWR0104
U 1 1 5E29446A
P 4200 5350
F 0 "#PWR0104" H 4200 5200 50  0001 C CNN
F 1 "+24V" V 4215 5478 50  0000 L CNN
F 2 "" H 4200 5350 50  0001 C CNN
F 3 "" H 4200 5350 50  0001 C CNN
	1    4200 5350
	-1   0    0    1   
$EndComp
$Comp
L power:GND #PWR0105
U 1 1 5DF3060E
P 9650 3650
F 0 "#PWR0105" H 9650 3400 50  0001 C CNN
F 1 "GND" H 9655 3477 50  0000 C CNN
F 2 "" H 9650 3650 50  0001 C CNN
F 3 "" H 9650 3650 50  0001 C CNN
	1    9650 3650
	0    1    1    0   
$EndComp
Wire Wire Line
	9650 3650 9750 3650
$Comp
L power:GND #PWR0106
U 1 1 5DF5FE0D
P 9700 3150
F 0 "#PWR0106" H 9700 2900 50  0001 C CNN
F 1 "GND" H 9705 2977 50  0000 C CNN
F 2 "" H 9700 3150 50  0001 C CNN
F 3 "" H 9700 3150 50  0001 C CNN
	1    9700 3150
	0    1    1    0   
$EndComp
Wire Wire Line
	9700 3150 9900 3150
$Comp
L power:GND #PWR0107
U 1 1 5DF7E914
P 5250 1900
F 0 "#PWR0107" H 5250 1650 50  0001 C CNN
F 1 "GND" H 5255 1727 50  0000 C CNN
F 2 "" H 5250 1900 50  0001 C CNN
F 3 "" H 5250 1900 50  0001 C CNN
	1    5250 1900
	0    1    1    0   
$EndComp
$Comp
L power:GND #PWR0108
U 1 1 5DF7F55A
P 1600 2100
F 0 "#PWR0108" H 1600 1850 50  0001 C CNN
F 1 "GND" H 1605 1927 50  0000 C CNN
F 2 "" H 1600 2100 50  0001 C CNN
F 3 "" H 1600 2100 50  0001 C CNN
	1    1600 2100
	0    -1   -1   0   
$EndComp
$Comp
L power:+24V #PWR0109
U 1 1 5DFE5A1D
P 4200 3300
F 0 "#PWR0109" H 4200 3150 50  0001 C CNN
F 1 "+24V" V 4215 3428 50  0000 L CNN
F 2 "" H 4200 3300 50  0001 C CNN
F 3 "" H 4200 3300 50  0001 C CNN
	1    4200 3300
	-1   0    0    1   
$EndComp
$Comp
L Device:R R4
U 1 1 5DCA4C8C
P 2050 4600
F 0 "R4" H 2120 4646 50  0000 L CNN
F 1 "100K" H 2120 4555 50  0000 L CNN
F 2 "Resistor_SMD:R_0603_1608Metric" V 1980 4600 50  0001 C CNN
F 3 "~" H 2050 4600 50  0001 C CNN
F 4 "C25803" H 2050 4600 50  0001 C CNN "LCSC-Nummer"
	1    2050 4600
	1    0    0    -1  
$EndComp
$Comp
L power:+24V #PWR0110
U 1 1 5E1034CE
P 7450 2500
F 0 "#PWR0110" H 7450 2350 50  0001 C CNN
F 1 "+24V" V 7465 2628 50  0000 L CNN
F 2 "" H 7450 2500 50  0001 C CNN
F 3 "" H 7450 2500 50  0001 C CNN
	1    7450 2500
	0    1    1    0   
$EndComp
Wire Wire Line
	7450 2500 7300 2500
Wire Wire Line
	2600 3400 2600 3250
$Comp
L Device:R R2
U 1 1 5DC9881E
P 2600 3100
F 0 "R2" H 2670 3146 50  0000 L CNN
F 1 "100K" H 2670 3055 50  0000 L CNN
F 2 "Resistor_SMD:R_0603_1608Metric" V 2530 3100 50  0001 C CNN
F 3 "~" H 2600 3100 50  0001 C CNN
F 4 "C25803" H 2600 3100 50  0001 C CNN "LCSC-Nummer"
	1    2600 3100
	-1   0    0    1   
$EndComp
$Comp
L Device:CP C2
U 1 1 5DE09D13
P 4700 2600
F 0 "C2" H 4818 2646 50  0000 L CNN
F 1 "22uF" H 4818 2555 50  0000 L CNN
F 2 "Capacitor_SMD:C_0805_2012Metric" H 4738 2450 50  0001 C CNN
F 3 "~" H 4700 2600 50  0001 C CNN
F 4 "C45783" H 4700 2600 50  0001 C CNN "LCSC-Nummer"
	1    4700 2600
	0    1    1    0   
$EndComp
Connection ~ 2600 2500
$Comp
L power:GND #PWR0111
U 1 1 5E3BE33D
P 9550 1500
F 0 "#PWR0111" H 9550 1250 50  0001 C CNN
F 1 "GND" V 9555 1372 50  0000 R CNN
F 2 "" H 9550 1500 50  0001 C CNN
F 3 "" H 9550 1500 50  0001 C CNN
	1    9550 1500
	0    1    1    0   
$EndComp
Wire Wire Line
	9600 1500 9600 1900
Connection ~ 9600 1500
Wire Wire Line
	9600 1900 9650 1900
Wire Wire Line
	9600 1200 9600 1500
Wire Wire Line
	5700 1550 5800 1550
Wire Wire Line
	5350 1550 5400 1550
$Comp
L power:+12V #PWR0112
U 1 1 5E51F92B
P 2600 3400
F 0 "#PWR0112" H 2600 3250 50  0001 C CNN
F 1 "+12V" H 2615 3573 50  0000 C CNN
F 2 "" H 2600 3400 50  0001 C CNN
F 3 "" H 2600 3400 50  0001 C CNN
	1    2600 3400
	-1   0    0    1   
$EndComp
Wire Wire Line
	2600 2500 2600 2150
$Comp
L power:GND #PWR0113
U 1 1 5E5D8F8B
P 2600 1400
F 0 "#PWR0113" H 2600 1150 50  0001 C CNN
F 1 "GND" V 2605 1272 50  0000 R CNN
F 2 "" H 2600 1400 50  0001 C CNN
F 3 "" H 2600 1400 50  0001 C CNN
	1    2600 1400
	-1   0    0    1   
$EndComp
Wire Wire Line
	2600 1850 2600 1400
$Comp
L power:GND #PWR0114
U 1 1 5E5F7D5C
P 9550 2700
F 0 "#PWR0114" H 9550 2450 50  0001 C CNN
F 1 "GND" V 9555 2572 50  0000 R CNN
F 2 "" H 9550 2700 50  0001 C CNN
F 3 "" H 9550 2700 50  0001 C CNN
	1    9550 2700
	0    1    1    0   
$EndComp
Wire Wire Line
	9550 2700 9750 2700
Wire Wire Line
	1600 2100 1300 2100
$Comp
L Amplifier_Operational:TL072 U1
U 2 1 5DC88E2D
P 3550 4850
F 0 "U1" H 3550 5217 50  0000 C CNN
F 1 "TL072" H 3550 5126 50  0000 C CNN
F 2 "Package_SO:SOIC-8_3.9x4.9mm_P1.27mm" H 3550 4850 50  0001 C CNN
F 3 "http://www.ti.com/lit/ds/symlink/tl071.pdf" H 3550 4850 50  0001 C CNN
F 4 "C6961" H 3550 4850 50  0001 C CNN "LCSC-Nummer"
	2    3550 4850
	1    0    0    -1  
$EndComp
Wire Wire Line
	9950 800  9950 850 
Wire Wire Line
	10100 800  9950 800 
$Comp
L power:+12V #PWR0115
U 1 1 5E51AB2A
P 9950 850
F 0 "#PWR0115" H 9950 700 50  0001 C CNN
F 1 "+12V" H 9965 1023 50  0000 C CNN
F 2 "" H 9950 850 50  0001 C CNN
F 3 "" H 9950 850 50  0001 C CNN
	1    9950 850 
	-1   0    0    1   
$EndComp
Wire Wire Line
	10100 1200 10100 800 
Wire Wire Line
	10100 1200 10000 1200
Connection ~ 10100 1200
Wire Wire Line
	10100 1500 10100 1200
Wire Wire Line
	10200 1200 10100 1200
Wire Wire Line
	10600 1200 10500 1200
Wire Wire Line
	10600 1500 10500 1500
Connection ~ 10600 1500
Wire Wire Line
	10600 1900 10600 1500
Wire Wire Line
	10600 1900 10400 1900
Wire Wire Line
	9600 1500 9700 1500
$Comp
L Device:R R10
U 1 1 5DCAAC62
P 10250 1900
F 0 "R10" H 10320 1946 50  0000 L CNN
F 1 "100K" H 10320 1855 50  0000 L CNN
F 2 "Resistor_SMD:R_0603_1608Metric" V 10180 1900 50  0001 C CNN
F 3 "~" H 10250 1900 50  0001 C CNN
F 4 "C25803" H 10250 1900 50  0001 C CNN "LCSC-Nummer"
	1    10250 1900
	0    1    1    0   
$EndComp
Wire Wire Line
	10700 1500 10600 1500
$Comp
L power:+24V #PWR0116
U 1 1 5E336A79
P 10700 1500
F 0 "#PWR0116" H 10700 1350 50  0001 C CNN
F 1 "+24V" H 10715 1673 50  0000 C CNN
F 2 "" H 10700 1500 50  0001 C CNN
F 3 "" H 10700 1500 50  0001 C CNN
	1    10700 1500
	0    1    1    0   
$EndComp
$Comp
L Device:R R11
U 1 1 5DCAAC68
P 9800 1900
F 0 "R11" H 9870 1946 50  0000 L CNN
F 1 "100K" H 9870 1855 50  0000 L CNN
F 2 "Resistor_SMD:R_0603_1608Metric" V 9730 1900 50  0001 C CNN
F 3 "~" H 9800 1900 50  0001 C CNN
F 4 "C25803" H 9800 1900 50  0001 C CNN "LCSC-Nummer"
	1    9800 1900
	0    1    1    0   
$EndComp
Wire Wire Line
	9950 1900 10050 1900
$Comp
L Device:C C7
U 1 1 5DCB0630
P 9850 1200
F 0 "C7" H 9965 1246 50  0000 L CNN
F 1 "100nF" H 9965 1155 50  0000 L CNN
F 2 "Capacitor_SMD:C_0603_1608Metric" H 9888 1050 50  0001 C CNN
F 3 "~" H 9850 1200 50  0001 C CNN
F 4 "C14663" H 9850 1200 50  0001 C CNN "LCSC-Nummer"
	1    9850 1200
	0    1    1    0   
$EndComp
$Comp
L Device:CP C5
U 1 1 5DCBBE09
P 9850 1500
F 0 "C5" H 9968 1546 50  0000 L CNN
F 1 "470uF" H 9968 1455 50  0000 L CNN
F 2 "Capacitor_THT:CP_Radial_D8.0mm_P3.80mm" H 9888 1350 50  0001 C CNN
F 3 "~" H 9850 1500 50  0001 C CNN
F 4 "" H 9850 1500 50  0001 C CNN "LCSC-Nummer"
	1    9850 1500
	0    1    1    0   
$EndComp
Wire Wire Line
	10100 1500 10050 1500
Connection ~ 10100 1500
Wire Wire Line
	10200 1500 10100 1500
$Comp
L Device:CP C4
U 1 1 5DCBB86D
P 10350 1500
F 0 "C4" H 10468 1546 50  0000 L CNN
F 1 "470uF" H 10468 1455 50  0000 L CNN
F 2 "Capacitor_THT:CP_Radial_D8.0mm_P3.80mm" H 10388 1350 50  0001 C CNN
F 3 "~" H 10350 1500 50  0001 C CNN
F 4 "" H 10350 1500 50  0001 C CNN "LCSC-Nummer"
	1    10350 1500
	0    1    1    0   
$EndComp
$Comp
L Device:C C6
U 1 1 5DCB034A
P 10350 1200
F 0 "C6" H 10465 1246 50  0000 L CNN
F 1 "100nF" H 10465 1155 50  0000 L CNN
F 2 "Capacitor_SMD:C_0603_1608Metric" H 10388 1050 50  0001 C CNN
F 3 "~" H 10350 1200 50  0001 C CNN
F 4 "C14663" H 10350 1200 50  0001 C CNN "LCSC-Nummer"
	1    10350 1200
	0    1    1    0   
$EndComp
$Comp
L Device:R R3
U 1 1 5DCA3B89
P 2750 2500
F 0 "R3" H 2820 2546 50  0000 L CNN
F 1 "2.2K" H 2820 2455 50  0000 L CNN
F 2 "Resistor_SMD:R_0603_1608Metric" V 2680 2500 50  0001 C CNN
F 3 "~" H 2750 2500 50  0001 C CNN
F 4 "C4190" H 2750 2500 50  0001 C CNN "LCSC-Nummer"
	1    2750 2500
	0    1    1    0   
$EndComp
Wire Wire Line
	1300 2500 2200 2500
Wire Wire Line
	5250 1900 5350 1900
Wire Wire Line
	5700 1900 5800 1900
Wire Wire Line
	5800 1550 5800 1900
Wire Wire Line
	5350 1550 5350 1900
Connection ~ 5350 1900
Wire Wire Line
	5350 1900 5400 1900
Wire Wire Line
	4200 2900 4200 2600
Wire Wire Line
	4200 3200 4200 3300
$Comp
L power:+24V #PWR0117
U 1 1 5E8570C1
P 7450 1900
F 0 "#PWR0117" H 7450 1750 50  0001 C CNN
F 1 "+24V" V 7465 2028 50  0000 L CNN
F 2 "" H 7450 1900 50  0001 C CNN
F 3 "" H 7450 1900 50  0001 C CNN
	1    7450 1900
	0    1    1    0   
$EndComp
Wire Wire Line
	7300 1900 7450 1900
Connection ~ 3900 2600
Wire Wire Line
	3900 2600 4200 2600
Wire Wire Line
	7000 1900 6750 1900
Wire Wire Line
	6300 2200 6300 2500
Connection ~ 4200 2600
Wire Wire Line
	4200 5300 4200 5350
Wire Wire Line
	2900 2500 3200 2500
Wire Wire Line
	5800 1900 6000 1900
Connection ~ 5800 1900
Wire Wire Line
	2050 4750 2050 4950
Wire Wire Line
	2050 4950 2050 5150
Wire Wire Line
	6750 1900 6750 2600
Connection ~ 10050 1500
Wire Wire Line
	10050 1500 10000 1500
Wire Wire Line
	10050 1500 10050 1900
Connection ~ 10050 1900
Wire Wire Line
	10050 1900 10100 1900
$Comp
L power:+12V #PWR0118
U 1 1 5EA0B609
P 3000 4150
F 0 "#PWR0118" H 3000 4000 50  0001 C CNN
F 1 "+12V" H 3015 4323 50  0000 C CNN
F 2 "" H 3000 4150 50  0001 C CNN
F 3 "" H 3000 4150 50  0001 C CNN
	1    3000 4150
	1    0    0    -1  
$EndComp
Wire Wire Line
	3000 4150 3000 4750
Wire Wire Line
	3000 4750 3250 4750
Wire Wire Line
	5250 2600 6750 2600
Wire Wire Line
	4950 2600 4850 2600
Connection ~ 6750 1900
Wire Wire Line
	4850 4850 5000 4850
Wire Wire Line
	4200 5000 4200 4850
Connection ~ 4200 4850
Wire Wire Line
	4200 4850 4550 4850
Wire Wire Line
	2050 3850 2050 4450
Wire Wire Line
	4200 2600 4450 2600
Wire Wire Line
	2050 3850 4450 3850
Wire Wire Line
	4450 3850 4450 2600
Connection ~ 4450 2600
Wire Wire Line
	4450 2600 4550 2600
Wire Wire Line
	6300 4850 6300 2500
Wire Wire Line
	5300 4850 6300 4850
Connection ~ 6300 2500
Wire Wire Line
	6300 2500 7000 2500
Wire Wire Line
	3850 4850 3950 4850
Connection ~ 2050 4950
Wire Wire Line
	2050 4950 3250 4950
Wire Wire Line
	2050 5450 2050 5800
Wire Wire Line
	2050 5800 3950 5800
Wire Wire Line
	3950 5800 3950 4850
Connection ~ 3950 4850
Wire Wire Line
	3950 4850 4200 4850
Wire Wire Line
	9600 1200 9700 1200
Wire Wire Line
	10600 1200 10600 1500
$EndSCHEMATC
